%YAML 1.1
%TAG !u! tag:unity3d.com,2011:
--- !u!1386491679 &1
PresetManager:
  m_ObjectHideFlags: 0
  serializedVersion: 2
  m_DefaultPresets:
  - first:
      m_NativeTypeID: 1006
      m_ManagedTypePPtr: {fileID: 0}
      m_ManagedTypeFallback: 
    second:
    - m_Preset: {fileID: 2655988077585873504, guid: ca3da263d1072f9459435fe7befc58e6, type: 2}
      m_Filter: 
      m_Disabled: 0
    - m_Preset: {fileID: 2655988077585873504, guid: d3ae75c3b64eb944faf7e4aa2ead53e1, type: 2}
      m_Filter: 
      m_Disabled: 0
    - m_Preset: {fileID: 2655988077585873504, guid: 53ea16461723b004dab90f59bb154944, type: 2}
      m_Filter: 
      m_Disabled: 0
  - first:
      m_NativeTypeID: 1041
      m_ManagedTypePPtr: {fileID: 0}
      m_ManagedTypeFallback: 
    second:
    - m_Preset: {fileID: 2655988077585873504, guid: afc33cd8ea1868240bb13e7b0800fcd0, type: 2}
      m_Filter: 
      m_Disabled: 0
