%YAML 1.1
%TAG !u! tag:unity3d.com,2011:
--- !u!114 &-483519657868642529
MonoBehaviour:
  m_ObjectHideFlags: 11
  m_CorrespondingSourceObject: {fileID: 0}
  m_PrefabInstance: {fileID: 0}
  m_PrefabAsset: {fileID: 0}
  m_GameObject: {fileID: 0}
  m_Enabled: 1
  m_EditorHideFlags: 0
  m_Script: {fileID: 11500000, guid: d0353a89b1f911e48b9e16bdc9f2e058, type: 3}
  m_Name: 
  m_EditorClassIdentifier: 
  version: 4
--- !u!21 &2100000
Material:
  serializedVersion: 6
  m_ObjectHideFlags: 0
  m_CorrespondingSourceObject: {fileID: 0}
  m_PrefabInstance: {fileID: 0}
  m_PrefabAsset: {fileID: 0}
  m_Name: Ellen_Eyes_Mat
  m_Shader: {fileID: 4800000, guid: 933532a4fcc9baf4fa0491de14d08ed7, type: 3}
  m_ShaderKeywords: _NORMALMAP
  m_LightmapFlags: 4
  m_EnableInstancingVariants: 0
  m_DoubleSidedGI: 0
  m_CustomRenderQueue: 2000
  stringTagMap:
    RenderType: Opaque
  disabledShaderPasses: []
  m_SavedProperties:
    serializedVersion: 3
    m_TexEnvs:
    - _BaseMap:
        m_Texture: {fileID: 2800000, guid: aa185cea8422ad24fa12ce1f3645e5a9, type: 3}
        m_Scale: {x: 1, y: 1}
        m_Offset: {x: 0, y: 0}
    - _BumpMap:
        m_Texture: {fileID: 2800000, guid: fe180c6592e9a444889916ff0549198b, type: 3}
        m_Scale: {x: 1, y: 1}
        m_Offset: {x: 0, y: 0}
    - _DetailAlbedoMap:
        m_Texture: {fileID: 0}
        m_Scale: {x: 1, y: 1}
        m_Offset: {x: 0, y: 0}
    - _DetailMask:
        m_Texture: {fileID: 0}
        m_Scale: {x: 1, y: 1}
        m_Offset: {x: 0, y: 0}
    - _DetailNormalMap:
        m_Texture: {fileID: 0}
        m_Scale: {x: 1, y: 1}
        m_Offset: {x: 0, y: 0}
    - _EmissionMap:
        m_Texture: {fileID: 0}
        m_Scale: {x: 1, y: 1}
        m_Offset: {x: 0, y: 0}
    - _HeightMap:
        m_Texture: {fileID: 0}
        m_Scale: {x: 1, y: 1}
        m_Offset: {x: 0, y: 0}
    - _MainTex:
        m_Texture: {fileID: 2800000, guid: aa185cea8422ad24fa12ce1f3645e5a9, type: 3}
        m_Scale: {x: 1, y: 1}
        m_Offset: {x: 0, y: 0}
    - _Mask:
        m_Texture: {fileID: 2800000, guid: d51abba6c428c40b68d16a3a9637d739, type: 3}
        m_Scale: {x: 1, y: 1}
        m_Offset: {x: 0, y: 0}
    - _MetallicGlossMap:
        m_Texture: {fileID: 0}
        m_Scale: {x: 1, y: 1}
        m_Offset: {x: 0, y: 0}
    - _Noise:
        m_Texture: {fileID: 2800000, guid: c7487463b14ceee43bff7f6f6bf59066, type: 3}
        m_Scale: {x: 1, y: 1}
        m_Offset: {x: 0, y: 0}
    - _OcclusionMap:
        m_Texture: {fileID: 0}
        m_Scale: {x: 1, y: 1}
        m_Offset: {x: 0, y: 0}
    - _ParallaxMap:
        m_Texture: {fileID: 0}
        m_Scale: {x: 1, y: 1}
        m_Offset: {x: 0, y: 0}
    - _SpecGlossMap:
        m_Texture: {fileID: 0}
        m_Scale: {x: 1, y: 1}
        m_Offset: {x: 0, y: 0}
    - unity_Lightmaps:
        m_Texture: {fileID: 0}
        m_Scale: {x: 1, y: 1}
        m_Offset: {x: 0, y: 0}
    - unity_LightmapsInd:
        m_Texture: {fileID: 0}
        m_Scale: {x: 1, y: 1}
        m_Offset: {x: 0, y: 0}
    - unity_ShadowMasks:
        m_Texture: {fileID: 0}
        m_Scale: {x: 1, y: 1}
        m_Offset: {x: 0, y: 0}
    m_Floats:
    - _AlphaClip: 0
    - _Blend: 0
    - _BumpScale: 1
    - _ClearCoatMask: 0
    - _ClearCoatSmoothness: 0
    - _Cull: 2
    - _Cutoff: 0.5
    - _DetailAlbedoMapScale: 1
    - _DetailNormalMapScale: 1
    - _Dilation: 8.77
    - _DstBlend: 0
    - _EnvironmentReflections: 1
    - _Fresnel: 0.15
    - _GlossMapScale: 1
    - _Glossiness: 1
    - _GlossyReflections: 1
    - _Grid: 0
    - _HeightMapScale: 0.202
    - _MaxParallaxSamples: 30
    - _Metallic: 0
    - _MinParallaxSamples: 0
    - _Mode: 0
    - _NormalScale: 0.6
    - _OcclusionStrength: 1
    - _Parallax: 0.23
    - _QueueOffset: 0
    - _ReceiveShadows: 1
    - _Reflection: 0.75
    - _SSS: 0.15
    - _SelfOcclusion: 1
    - _SelfOcclusionOffset: 0.001
    - _SelfOcclusionStrength: 0.199
    - _Smoothness: 1
    - _SmoothnessTextureChannel: 0
    - _SpecularHighlights: 1
    - _SrcBlend: 1
    - _Surface: 0
    - _UVSec: 0
    - _UVs: 0
    - _WorkflowMode: 1
    - _ZWrite: 1
    m_Colors:
    - _BaseColor: {r: 0.8602941, g: 0.8602941, b: 0.8602941, a: 1}
    - _Color: {r: 0.8602941, g: 0.8602941, b: 0.8602941, a: 1}
    - _EmissionColor: {r: 0, g: 0, b: 0, a: 1}
    - _EyeColor: {r: 0.23584908, g: 0.059835423, b: 0, a: 0}
    - _InternalColor: {r: 0.6392157, g: 0.29803923, b: 0.24313727, a: 1}
    - _ScleraColor: {r: 0.86666673, g: 0.7372549, b: 0.6901961, a: 1}
    - _ScoleraColor: {r: 0.875, g: 0.875, b: 0.875, a: 0}
    - _SpecColor: {r: 0.08088237, g: 0.08088237, b: 0.08088237, a: 1}
  m_BuildTextureStacks: []
