{
    "name": "Blurry.Main.Layer_0_Base",
    "rootNamespace": "Blurry.Main.Layer_0_Base",
    "references": [
        "GUID:699ef89c833cc834392e80df48497db3"
    ],
    "includePlatforms": [],
    "excludePlatforms": [],
    "allowUnsafeCode": false,
    "overrideReferences": false,
    "precompiledReferences": [],
    "autoReferenced": true,
    "defineConstraints": [],
    "versionDefines": [],
    "noEngineReferences": false
}