{
    "name": "MainInputActions",
    "maps": [
        {
            "name": "CharacterNormal",
            "id": "afb15fb2-c4e5-48b4-979a-45ac5c95cfd2",
            "actions": [
                {
                    "name": "MovementX",
                    "type": "PassThrough",
                    "id": "6ec7c2ec-8b75-40d5-ab6c-01d600e654ec",
                    "expectedControlType": "",
                    "processors": "",
                    "interactions": ""
                },
                {
                    "name": "Jump",
                    "type": "PassThrough",
                    "id": "0e8f8187-0920-4592-a5e0-7df1de674204",
                    "expectedControlType": "",
                    "processors": "",
                    "interactions": ""
                },
                {
                    "name": "Crouch",
                    "type": "PassThrough",
                    "id": "f4bcaae1-9b09-445e-93ab-0c182aea69c4",
                    "expectedControlType": "",
                    "processors": "",
                    "interactions": ""
                },
                {
                    "name": "Action",
                    "type": "Button",
                    "id": "bd204056-dea4-4970-92de-fcd2c5ec9a02",
                    "expectedControlType": "Button",
                    "processors": "",
                    "interactions": ""
                },
                {
                    "name": "Run",
                    "type": "PassThrough",
                    "id": "6f344ee1-ac72-490c-8dd7-2594614282b9",
                    "expectedControlType": "",
                    "processors": "",
                    "interactions": ""
                },
                {
                    "name": "AlertMode",
                    "type": "Button",
                    "id": "5b4d6146-3c33-4d20-9d5b-059c7018ad95",
                    "expectedControlType": "Button",
                    "processors": "",
                    "interactions": ""
                },
                {
                    "name": "PushAndPull",
                    "type": "PassThrough",
                    "id": "df6c8f25-e2fb-4a7e-b431-716e42c27f98",
                    "expectedControlType": "",
                    "processors": "",
                    "interactions": ""
                },
                {
                    "name": "Climb",
                    "type": "Button",
                    "id": "817b040e-0cab-4c4e-a13a-53d448e1026c",
                    "expectedControlType": "Button",
                    "processors": "",
                    "interactions": ""
                },
                {
                    "name": "ClimbCancel",
                    "type": "Button",
                    "id": "d00017db-e73f-462d-ba52-08d44e9afa54",
                    "expectedControlType": "",
                    "processors": "",
                    "interactions": ""
                }
            ],
            "bindings": [
                {
                    "name": "ArrowKeys",
                    "id": "07c36b85-c24f-433f-ba36-5d6ddd9ef208",
                    "path": "1DAxis",
                    "interactions": "",
                    "processors": "",
                    "groups": "",
                    "action": "MovementX",
                    "isComposite": true,
                    "isPartOfComposite": false
                },
                {
                    "name": "negative",
                    "id": "50dc0986-d929-436e-b91f-e94d8c84b3d0",
                    "path": "<Keyboard>/leftArrow",
                    "interactions": "",
                    "processors": "",
                    "groups": "Keyboard",
                    "action": "MovementX",
                    "isComposite": false,
                    "isPartOfComposite": true
                },
                {
                    "name": "positive",
                    "id": "a0d1d240-57f6-46e2-9144-9f8b6fa61c8d",
                    "path": "<Keyboard>/rightArrow",
                    "interactions": "",
                    "processors": "",
                    "groups": "Keyboard",
                    "action": "MovementX",
                    "isComposite": false,
                    "isPartOfComposite": true
                },
                {
                    "name": "LeftAxis",
                    "id": "10808469-68ea-452c-b7a6-27b9a4428d64",
                    "path": "1DAxis",
                    "interactions": "",
                    "processors": "",
                    "groups": "",
                    "action": "MovementX",
                    "isComposite": true,
                    "isPartOfComposite": false
                },
                {
                    "name": "negative",
                    "id": "20271bc7-86e2-4707-9956-e2d05a3012a0",
                    "path": "<XInputController>/leftStick/left",
                    "interactions": "",
                    "processors": "",
                    "groups": "JoystickXBox;XboxController",
                    "action": "MovementX",
                    "isComposite": false,
                    "isPartOfComposite": true
                },
                {
                    "name": "positive",
                    "id": "fdbbe077-9baf-4daf-a49e-b83a0200a4d7",
                    "path": "<XInputController>/leftStick/right",
                    "interactions": "",
                    "processors": "",
                    "groups": "JoystickXBox;XboxController",
                    "action": "MovementX",
                    "isComposite": false,
                    "isPartOfComposite": true
                },
                {
                    "name": "LeftAxis",
                    "id": "d692bc25-2bc7-4d00-bacb-165f2bfa40d0",
                    "path": "1DAxis",
                    "interactions": "",
                    "processors": "",
                    "groups": "",
                    "action": "MovementX",
                    "isComposite": true,
                    "isPartOfComposite": false
                },
                {
                    "name": "negative",
                    "id": "0e06d681-7bcd-42fe-b745-d6ea1e4387ec",
                    "path": "<Gamepad>/leftStick/left",
                    "interactions": "",
                    "processors": "",
                    "groups": "Gamepad",
                    "action": "MovementX",
                    "isComposite": false,
                    "isPartOfComposite": true
                },
                {
                    "name": "positive",
                    "id": "80afaea8-482c-4c2e-bbcf-7cba8d77163d",
                    "path": "<Gamepad>/leftStick/right",
                    "interactions": "",
                    "processors": "",
                    "groups": "Gamepad",
                    "action": "MovementX",
                    "isComposite": false,
                    "isPartOfComposite": true
                },
                {
                    "name": "",
                    "id": "10c3ebb4-7cbb-4696-8052-8f6eb32a22e6",
                    "path": "<Keyboard>/upArrow",
                    "interactions": "",
                    "processors": "",
                    "groups": "Keyboard",
                    "action": "Jump",
                    "isComposite": false,
                    "isPartOfComposite": false
                },
                {
                    "name": "",
                    "id": "65d36398-2089-4279-9c79-eb8699dbc6a2",
                    "path": "<XInputController>/rightStick/up",
                    "interactions": "",
                    "processors": "",
                    "groups": "JoystickXBox;XboxController",
                    "action": "Jump",
                    "isComposite": false,
                    "isPartOfComposite": false
                },
                {
                    "name": "",
                    "id": "b5c1586c-9bd3-46ab-88e4-530733f8a0f8",
                    "path": "<Gamepad>/rightStick/up",
                    "interactions": "",
                    "processors": "",
                    "groups": "Gamepad",
                    "action": "Jump",
                    "isComposite": false,
                    "isPartOfComposite": false
                },
                {
                    "name": "ArrowKey",
                    "id": "88d0b2d7-c733-417a-b397-5ffee341b0fa",
                    "path": "1DAxis",
                    "interactions": "",
                    "processors": "",
                    "groups": "",
                    "action": "Crouch",
                    "isComposite": true,
                    "isPartOfComposite": false
                },
                {
                    "name": "negative",
                    "id": "e1d728b0-a799-4123-8569-f5b40b07ee47",
                    "path": "<Keyboard>/downArrow",
                    "interactions": "",
                    "processors": "",
                    "groups": "Keyboard",
                    "action": "Crouch",
                    "isComposite": false,
                    "isPartOfComposite": true
                },
                {
                    "name": "LeftAxis",
                    "id": "b749023a-f437-4965-8e9e-843dec54838d",
                    "path": "1DAxis",
                    "interactions": "",
                    "processors": "",
                    "groups": "",
                    "action": "Crouch",
                    "isComposite": true,
                    "isPartOfComposite": false
                },
                {
                    "name": "negative",
                    "id": "91868c00-2e53-40d4-b351-750baa356af8",
                    "path": "<XInputController>/rightStick/down",
                    "interactions": "",
                    "processors": "",
                    "groups": "JoystickXBox;XboxController",
                    "action": "Crouch",
                    "isComposite": false,
                    "isPartOfComposite": true
                },
                {
                    "name": "negative",
                    "id": "68605210-9a81-41c8-bf22-dcc8a3c17def",
                    "path": "<Gamepad>/rightStick/down",
                    "interactions": "",
                    "processors": "",
                    "groups": "Gamepad",
                    "action": "Crouch",
                    "isComposite": false,
                    "isPartOfComposite": true
                },
                {
                    "name": "",
                    "id": "e2153559-833a-4ad3-83cd-6d0f4f7b1a98",
                    "path": "<Keyboard>/rightCtrl",
                    "interactions": "",
                    "processors": "",
                    "groups": "Keyboard",
                    "action": "Action",
                    "isComposite": false,
                    "isPartOfComposite": false
                },
                {
                    "name": "",
                    "id": "553735e0-3c29-494b-bb23-a762e97ab287",
                    "path": "<XInputController>/buttonSouth",
                    "interactions": "",
                    "processors": "",
                    "groups": "JoystickXBox;XboxController",
                    "action": "Action",
                    "isComposite": false,
                    "isPartOfComposite": false
                },
                {
                    "name": "",
                    "id": "e3eff85e-8313-4f8f-873f-5ab605964829",
                    "path": "<Gamepad>/buttonSouth",
                    "interactions": "",
                    "processors": "",
                    "groups": "Gamepad",
                    "action": "Action",
                    "isComposite": false,
                    "isPartOfComposite": false
                },
                {
                    "name": "",
                    "id": "1bf322a1-ca55-4268-ad34-f4b19d901e92",
                    "path": "<Keyboard>/rightShift",
                    "interactions": "",
                    "processors": "",
                    "groups": "Keyboard",
                    "action": "Run",
                    "isComposite": false,
                    "isPartOfComposite": false
                },
                {
                    "name": "",
                    "id": "f33352b3-5c7d-409f-a22a-6b43c4a1c1b5",
                    "path": "<XInputController>/rightTrigger",
                    "interactions": "",
                    "processors": "",
                    "groups": "JoystickXBox;XboxController",
                    "action": "Run",
                    "isComposite": false,
                    "isPartOfComposite": false
                },
                {
                    "name": "",
                    "id": "51b931f5-0970-4427-878f-6ee4a90eeae3",
                    "path": "<Gamepad>/rightTrigger",
                    "interactions": "",
                    "processors": "",
                    "groups": "Gamepad",
                    "action": "Run",
                    "isComposite": false,
                    "isPartOfComposite": false
                },
                {
                    "name": "",
                    "id": "6d88e687-ab2b-4199-92a8-cd0b09329151",
                    "path": "<Keyboard>/a",
                    "interactions": "",
                    "processors": "",
                    "groups": "Keyboard",
                    "action": "AlertMode",
                    "isComposite": false,
                    "isPartOfComposite": false
                },
                {
                    "name": "",
                    "id": "78aa3da3-6cde-4c13-8938-065e6706cb23",
                    "path": "<XInputController>/leftTrigger",
                    "interactions": "",
                    "processors": "",
                    "groups": "JoystickXBox;XboxController",
                    "action": "AlertMode",
                    "isComposite": false,
                    "isPartOfComposite": false
                },
                {
                    "name": "",
                    "id": "844de2e9-eb00-4406-8fe9-cd97c7fb334e",
                    "path": "<Gamepad>/leftTrigger",
                    "interactions": "",
                    "processors": "",
                    "groups": "Gamepad",
                    "action": "AlertMode",
                    "isComposite": false,
                    "isPartOfComposite": false
                },
                {
                    "name": "",
                    "id": "ec703aaf-78c2-4304-9bea-cf9982a3f9cf",
                    "path": "<Keyboard>/rightCtrl",
                    "interactions": "",
                    "processors": "",
                    "groups": "Keyboard",
                    "action": "PushAndPull",
                    "isComposite": false,
                    "isPartOfComposite": false
                },
                {
                    "name": "",
                    "id": "0cfca229-4706-4417-bd24-4d74c0e8c9f0",
                    "path": "<Gamepad>/buttonSouth",
                    "interactions": "",
                    "processors": "",
                    "groups": "Gamepad",
                    "action": "PushAndPull",
                    "isComposite": false,
                    "isPartOfComposite": false
                },
                {
                    "name": "",
                    "id": "b245d4f7-50aa-4010-a3a2-4249e76b9969",
                    "path": "<XInputController>/buttonSouth",
                    "interactions": "",
                    "processors": "",
                    "groups": "XboxController",
                    "action": "PushAndPull",
                    "isComposite": false,
                    "isPartOfComposite": false
                },
                {
                    "name": "",
                    "id": "7eb79e01-219e-46d2-b15f-21daec1b12be",
                    "path": "<Keyboard>/upArrow",
                    "interactions": "",
                    "processors": "",
                    "groups": "Keyboard",
                    "action": "Climb",
                    "isComposite": false,
                    "isPartOfComposite": false
                },
                {
                    "name": "",
                    "id": "67531c60-1aa5-431e-935d-fbd86b6f7ec2",
                    "path": "<Gamepad>/rightStick/up",
                    "interactions": "",
                    "processors": "",
                    "groups": "Gamepad",
                    "action": "Climb",
                    "isComposite": false,
                    "isPartOfComposite": false
                },
                {
                    "name": "",
                    "id": "2d083954-b1ef-4555-a581-2e983a2ffcc6",
                    "path": "<XInputController>/rightStick/up",
                    "interactions": "",
                    "processors": "",
                    "groups": "XboxController",
                    "action": "Climb",
                    "isComposite": false,
                    "isPartOfComposite": false
                },
                {
                    "name": "",
                    "id": "71114879-4762-4f5d-b3ae-05d89ae8bed3",
                    "path": "<Keyboard>/downArrow",
                    "interactions": "",
                    "processors": "",
                    "groups": "Keyboard",
                    "action": "ClimbCancel",
                    "isComposite": false,
                    "isPartOfComposite": false
                },
                {
                    "name": "",
                    "id": "c6ed0940-0653-44f5-8c8a-1d3138bc5a5b",
                    "path": "<Gamepad>/rightStick/down",
                    "interactions": "",
                    "processors": "",
                    "groups": "Gamepad",
                    "action": "ClimbCancel",
                    "isComposite": false,
                    "isPartOfComposite": false
                },
                {
                    "name": "",
                    "id": "9753a641-6d49-47da-9705-0e7ae1ca566c",
                    "path": "<XInputController>/rightStick/down",
                    "interactions": "",
                    "processors": "",
                    "groups": "XboxController",
                    "action": "ClimbCancel",
                    "isComposite": false,
                    "isPartOfComposite": false
                }
            ]
        },
        {
            "name": "CharacterSwim",
            "id": "e37f540c-ce89-4666-ac20-4c58df83b643",
            "actions": [
                {
                    "name": "SwimMode",
                    "type": "Button",
                    "id": "d78f232e-5949-400e-9204-2749ec139391",
                    "expectedControlType": "",
                    "processors": "",
                    "interactions": ""
                },
                {
                    "name": "MovementSwim",
                    "type": "PassThrough",
                    "id": "27b0f2ff-4346-405c-9ee4-a4224183b6b2",
                    "expectedControlType": "Vector2",
                    "processors": "",
                    "interactions": ""
                }
            ],
            "bindings": [
                {
                    "name": "",
                    "id": "8708e7cb-7c8e-4813-aaac-4a1831982b80",
                    "path": "<Keyboard>/s",
                    "interactions": "",
                    "processors": "",
                    "groups": "Keyboard",
                    "action": "SwimMode",
                    "isComposite": false,
                    "isPartOfComposite": false
                },
                {
                    "name": "",
                    "id": "fddc6cf3-8076-46ea-af25-454c5aa087d9",
                    "path": "<XInputController>/buttonNorth",
                    "interactions": "",
                    "processors": "",
                    "groups": "XboxController",
                    "action": "SwimMode",
                    "isComposite": false,
                    "isPartOfComposite": false
                },
                {
                    "name": "",
                    "id": "36eea32d-1369-47a6-bcd6-163efde69854",
                    "path": "<Gamepad>/buttonNorth",
                    "interactions": "",
                    "processors": "",
                    "groups": "Gamepad",
                    "action": "SwimMode",
                    "isComposite": false,
                    "isPartOfComposite": false
                },
                {
                    "name": "MovementSwimArrows",
                    "id": "2d9398bb-23c2-430c-a59c-5b62b0945742",
                    "path": "2DVector(normalize=false)",
                    "interactions": "",
                    "processors": "",
                    "groups": "",
                    "action": "MovementSwim",
                    "isComposite": true,
                    "isPartOfComposite": false
                },
                {
                    "name": "up",
                    "id": "633ac8df-bb96-4ae0-b52f-1c301bc8ec74",
                    "path": "<Keyboard>/upArrow",
                    "interactions": "",
                    "processors": "",
                    "groups": "Keyboard",
                    "action": "MovementSwim",
                    "isComposite": false,
                    "isPartOfComposite": true
                },
                {
                    "name": "down",
                    "id": "266b69ac-9e57-40f3-b3a6-578bcb0e8dbf",
                    "path": "<Keyboard>/downArrow",
                    "interactions": "",
                    "processors": "",
                    "groups": "Keyboard",
                    "action": "MovementSwim",
                    "isComposite": false,
                    "isPartOfComposite": true
                },
                {
                    "name": "left",
                    "id": "7bda6c34-b279-4022-a3c9-ed68e57d3322",
                    "path": "<Keyboard>/leftArrow",
                    "interactions": "",
                    "processors": "",
                    "groups": "Keyboard",
                    "action": "MovementSwim",
                    "isComposite": false,
                    "isPartOfComposite": true
                },
                {
                    "name": "right",
                    "id": "88868e7b-59f3-42c0-bb9a-480551d6d992",
                    "path": "<Keyboard>/rightArrow",
                    "interactions": "",
                    "processors": "",
                    "groups": "Keyboard",
                    "action": "MovementSwim",
                    "isComposite": false,
                    "isPartOfComposite": true
                },
                {
                    "name": "LeftAxis",
                    "id": "b70171cf-d4e6-4864-a07c-f7a49e54bf6a",
                    "path": "2DVector(normalize=false)",
                    "interactions": "",
                    "processors": "",
                    "groups": "XboxController",
                    "action": "MovementSwim",
                    "isComposite": true,
                    "isPartOfComposite": false
                },
                {
                    "name": "up",
                    "id": "2367a432-22f0-42b9-b6a3-0180a18eeddd",
                    "path": "<XInputController>/leftStick/up",
                    "interactions": "",
                    "processors": "",
                    "groups": "XboxController",
                    "action": "MovementSwim",
                    "isComposite": false,
                    "isPartOfComposite": true
                },
                {
                    "name": "down",
                    "id": "50a77e6c-df37-4af5-b8c7-ae79753a5d3a",
                    "path": "<XInputController>/leftStick/down",
                    "interactions": "",
                    "processors": "",
                    "groups": "XboxController",
                    "action": "MovementSwim",
                    "isComposite": false,
                    "isPartOfComposite": true
                },
                {
                    "name": "left",
                    "id": "d9db9c24-3cb9-42dc-b093-71a3ca99c3ad",
                    "path": "<XInputController>/leftStick/left",
                    "interactions": "",
                    "processors": "",
                    "groups": "XboxController",
                    "action": "MovementSwim",
                    "isComposite": false,
                    "isPartOfComposite": true
                },
                {
                    "name": "right",
                    "id": "9e49e7d4-7f33-4101-bef2-f20b7d617815",
                    "path": "<XInputController>/leftStick/right",
                    "interactions": "",
                    "processors": "",
                    "groups": "XboxController",
                    "action": "MovementSwim",
                    "isComposite": false,
                    "isPartOfComposite": true
                },
                {
                    "name": "LeftAxis",
                    "id": "0b872ffd-8b45-480d-88ae-3c9cf04c4a94",
                    "path": "2DVector(normalize=false)",
                    "interactions": "",
                    "processors": "",
                    "groups": "",
                    "action": "MovementSwim",
                    "isComposite": true,
                    "isPartOfComposite": false
                },
                {
                    "name": "up",
                    "id": "12a24c88-5767-4032-9618-f763d73a1342",
                    "path": "<Gamepad>/leftStick/up",
                    "interactions": "",
                    "processors": "",
                    "groups": "Gamepad",
                    "action": "MovementSwim",
                    "isComposite": false,
                    "isPartOfComposite": true
                },
                {
                    "name": "down",
                    "id": "f8721d59-a81b-4256-95f5-88e2663135da",
                    "path": "<Gamepad>/leftStick/down",
                    "interactions": "",
                    "processors": "",
                    "groups": "Gamepad",
                    "action": "MovementSwim",
                    "isComposite": false,
                    "isPartOfComposite": true
                },
                {
                    "name": "left",
                    "id": "7be998c1-5474-49ac-b64a-2578405122c8",
                    "path": "<Gamepad>/leftStick/left",
                    "interactions": "",
                    "processors": "",
                    "groups": "Gamepad",
                    "action": "MovementSwim",
                    "isComposite": false,
                    "isPartOfComposite": true
                },
                {
                    "name": "right",
                    "id": "d723e23a-11df-4a47-a4d0-a3b30bcc5157",
                    "path": "<Gamepad>/leftStick/right",
                    "interactions": "",
                    "processors": "",
                    "groups": "Gamepad",
                    "action": "MovementSwim",
                    "isComposite": false,
                    "isPartOfComposite": true
                }
            ]
        },
        {
            "name": "Drone",
            "id": "004d86d5-98a6-41d0-822b-d9d5986f6b52",
            "actions": [
                {
                    "name": "MovementDrone",
                    "type": "PassThrough",
                    "id": "86a250e2-fd8f-4121-b633-ddf874d0460d",
                    "expectedControlType": "Vector2",
                    "processors": "",
                    "interactions": ""
                },
                {
                    "name": "DroneMode",
                    "type": "Button",
                    "id": "1b9ec0b7-a485-40cb-b73d-4c9665f2a336",
                    "expectedControlType": "",
                    "processors": "",
                    "interactions": ""
                }
            ],
            "bindings": [
                {
                    "name": "",
                    "id": "1420434d-90df-49b3-bb22-a759263835ee",
                    "path": "<Keyboard>/d",
                    "interactions": "",
                    "processors": "",
                    "groups": "Keyboard",
                    "action": "DroneMode",
                    "isComposite": false,
                    "isPartOfComposite": false
                },
                {
                    "name": "",
                    "id": "6af4a4df-d9c2-4484-9cab-893b154ec61a",
                    "path": "<Gamepad>/buttonEast",
                    "interactions": "",
                    "processors": "",
                    "groups": "XboxController",
                    "action": "DroneMode",
                    "isComposite": false,
                    "isPartOfComposite": false
                },
                {
                    "name": "",
                    "id": "8fe1af85-1767-4c9f-9463-7f95efb3b67e",
                    "path": "<XInputController>/buttonEast",
                    "interactions": "",
                    "processors": "",
                    "groups": "Gamepad",
                    "action": "DroneMode",
                    "isComposite": false,
                    "isPartOfComposite": false
                },
                {
                    "name": "MovementDroneArrows",
                    "id": "b86b5a65-29ab-420b-b681-13c604b216a1",
                    "path": "2DVector(normalize=false)",
                    "interactions": "",
                    "processors": "",
                    "groups": "",
                    "action": "MovementDrone",
                    "isComposite": true,
                    "isPartOfComposite": false
                },
                {
                    "name": "up",
                    "id": "d63e5a93-a931-464d-92ff-7889a43c518d",
                    "path": "<Keyboard>/upArrow",
                    "interactions": "",
                    "processors": "",
                    "groups": "Keyboard",
                    "action": "MovementDrone",
                    "isComposite": false,
                    "isPartOfComposite": true
                },
                {
                    "name": "down",
                    "id": "80734c94-6a4a-4a41-973a-dd70b53dceb4",
                    "path": "<Keyboard>/downArrow",
                    "interactions": "",
                    "processors": "",
                    "groups": "Keyboard",
                    "action": "MovementDrone",
                    "isComposite": false,
                    "isPartOfComposite": true
                },
                {
                    "name": "left",
                    "id": "99a6159b-881b-475e-9815-3e21a01ccf03",
                    "path": "<Keyboard>/leftArrow",
                    "interactions": "",
                    "processors": "",
                    "groups": "Keyboard",
                    "action": "MovementDrone",
                    "isComposite": false,
                    "isPartOfComposite": true
                },
                {
                    "name": "right",
                    "id": "82c50cbc-ff1a-4995-b223-3e8033befea6",
                    "path": "<Keyboard>/rightArrow",
                    "interactions": "",
                    "processors": "",
                    "groups": "Keyboard",
                    "action": "MovementDrone",
                    "isComposite": false,
                    "isPartOfComposite": true
                },
                {
                    "name": "LeftAxis",
                    "id": "6ee8167b-5a24-4a9c-8bc2-555afe125812",
                    "path": "2DVector(normalize=false)",
                    "interactions": "",
                    "processors": "",
                    "groups": "XboxController",
                    "action": "MovementDrone",
                    "isComposite": true,
                    "isPartOfComposite": false
                },
                {
                    "name": "up",
                    "id": "e11fa77c-d517-45f7-a899-8a6906d53c48",
                    "path": "<XInputController>/leftStick/up",
                    "interactions": "",
                    "processors": "",
                    "groups": "XboxController",
                    "action": "MovementDrone",
                    "isComposite": false,
                    "isPartOfComposite": true
                },
                {
                    "name": "down",
                    "id": "29ce7583-d7de-40cc-b49a-0ddca6f88d18",
                    "path": "<XInputController>/leftStick/down",
                    "interactions": "",
                    "processors": "",
                    "groups": "XboxController",
                    "action": "MovementDrone",
                    "isComposite": false,
                    "isPartOfComposite": true
                },
                {
                    "name": "left",
                    "id": "8b757166-a17e-431f-851c-6338c94ba2c8",
                    "path": "<XInputController>/leftStick/left",
                    "interactions": "",
                    "processors": "",
                    "groups": "XboxController",
                    "action": "MovementDrone",
                    "isComposite": false,
                    "isPartOfComposite": true
                },
                {
                    "name": "right",
                    "id": "48064f12-76cc-442a-b9df-418fc2a9d29f",
                    "path": "<XInputController>/leftStick/right",
                    "interactions": "",
                    "processors": "",
                    "groups": "XboxController",
                    "action": "MovementDrone",
                    "isComposite": false,
                    "isPartOfComposite": true
                },
                {
                    "name": "LeftAxis",
                    "id": "1bf36d46-c23e-45d8-ae2f-5490d60dbfc8",
                    "path": "2DVector(normalize=false)",
                    "interactions": "",
                    "processors": "",
                    "groups": "",
                    "action": "MovementDrone",
                    "isComposite": true,
                    "isPartOfComposite": false
                },
                {
                    "name": "up",
                    "id": "238b38a7-74bb-4ecf-94a7-2395e0d3fd71",
                    "path": "<Gamepad>/leftStick/up",
                    "interactions": "",
                    "processors": "",
                    "groups": "Gamepad",
                    "action": "MovementDrone",
                    "isComposite": false,
                    "isPartOfComposite": true
                },
                {
                    "name": "down",
                    "id": "f3718d66-fbf7-4d02-9b38-839c886a4f4b",
                    "path": "<Gamepad>/leftStick/down",
                    "interactions": "",
                    "processors": "",
                    "groups": "Gamepad",
                    "action": "MovementDrone",
                    "isComposite": false,
                    "isPartOfComposite": true
                },
                {
                    "name": "left",
                    "id": "f4c68656-3f9e-4a9a-b4ad-8b0d74cedd9a",
                    "path": "<Gamepad>/leftStick/left",
                    "interactions": "",
                    "processors": "",
                    "groups": "Gamepad",
                    "action": "MovementDrone",
                    "isComposite": false,
                    "isPartOfComposite": true
                },
                {
                    "name": "right",
                    "id": "47aa4478-0473-4665-a64c-09bcf0813f64",
                    "path": "<Gamepad>/leftStick/right",
                    "interactions": "",
                    "processors": "",
                    "groups": "Gamepad",
                    "action": "MovementDrone",
                    "isComposite": false,
                    "isPartOfComposite": true
                }
            ]
        }
    ],
    "controlSchemes": [
        {
            "name": "Keyboard",
            "bindingGroup": "Keyboard",
            "devices": [
                {
                    "devicePath": "<Keyboard>",
                    "isOptional": false,
                    "isOR": false
                }
            ]
        },
        {
            "name": "Gamepad",
            "bindingGroup": "Gamepad",
            "devices": [
                {
                    "devicePath": "<Gamepad>",
                    "isOptional": false,
                    "isOR": false
                }
            ]
        },
        {
            "name": "XboxController",
            "bindingGroup": "XboxController",
            "devices": [
                {
                    "devicePath": "<XInputController>",
                    "isOptional": false,
                    "isOR": false
                }
            ]
        }
    ]
}