%YAML 1.1
%TAG !u! tag:unity3d.com,2011:
--- !u!114 &11400000
MonoBehaviour:
  m_ObjectHideFlags: 0
  m_CorrespondingSourceObject: {fileID: 0}
  m_PrefabInstance: {fileID: 0}
  m_PrefabAsset: {fileID: 0}
  m_GameObject: {fileID: 0}
  m_Enabled: 1
  m_EditorHideFlags: 0
  m_Script: {fileID: 11500000, guid: 73c0a0f4eaeb7e74fa207d1a9e0c77da, type: 3}
  m_Name: Sample_MechanicController_ConfigFile
  m_EditorClassIdentifier: 
  activePresetIndex: 0
  presets:
  - sample: 0
