%YAML 1.1
%TAG !u! tag:unity3d.com,2011:
--- !u!114 &11400000
MonoBehaviour:
  m_ObjectHideFlags: 0
  m_CorrespondingSourceObject: {fileID: 0}
  m_PrefabInstance: {fileID: 0}
  m_PrefabAsset: {fileID: 0}
  m_GameObject: {fileID: 0}
  m_Enabled: 1
  m_EditorHideFlags: 0
  m_Script: {fileID: 11500000, guid: fc7398f46890640439a65a3cbff6db9f, type: 3}
  m_Name: SocialObstacles_Mechanic_ConfigFile
  m_EditorClassIdentifier: 
  activePresetIndex: 0
  presets:
  - eachWaveObstaclesCount:
      min: 1
      max: 1
    wavesIntervalSecond:
      min: 4
      max: 0.1
    obstaclesWavesIntervalRandomnessNormalizedPercent: 0
    obstaclesAngularVelocityIntensity: 1
    speed:
      min: 0.3
      max: 20
    speedRandomnessNormalizedPercent: 0
