{
    "name": "Blurry.Application.CharacterBehaviours.BehaviourData",
    "rootNamespace": "Blurry.Application.CharacterBehaviours.BehaviourData",
    "references": [
        "GUID:604e4e4b8fb9c5f428fe3f86ee3a921d",
        "GUID:52cc784988ee8c44aa38c8f28104c9ed",
        "GUID:5801cadb0730f904d85a41275dd2770c",
        "GUID:601f9b2074a98b547a278bb7f6e35d3c",
        "GUID:1b6ac69ad16c8d842abff77bf0334100",
        "GUID:89fb3871e7201614aafe947bf2aa9fc9",
        "GUID:e94b15f76629a6040af4e5b6d81ab0f3"
    ],
    "includePlatforms": [],
    "excludePlatforms": [],
    "allowUnsafeCode": false,
    "overrideReferences": false,
    "precompiledReferences": [],
    "autoReferenced": false,
    "defineConstraints": [],
    "versionDefines": [],
    "noEngineReferences": false
}