{
    "name": "Blurry.Application.LevelManagement.Mock",
    "rootNamespace": "Blurry.Application.LevelManagement.Mock",
    "references": [
        "GUID:604e4e4b8fb9c5f428fe3f86ee3a921d",
        "GUID:52cc784988ee8c44aa38c8f28104c9ed",
        "GUID:601f9b2074a98b547a278bb7f6e35d3c",
        "GUID:4381233bf0c4af248bfcfe0650f30337",
        "GUID:70a61a49eea407f48a2ed2cba1a5af05"
    ],
    "includePlatforms": [],
    "excludePlatforms": [],
    "allowUnsafeCode": false,
    "overrideReferences": false,
    "precompiledReferences": [],
    "autoReferenced": false,
    "defineConstraints": [],
    "versionDefines": [],
    "noEngineReferences": false
}