%YAML 1.1
%TAG !u! tag:unity3d.com,2011:
--- !u!162 &1
EditorUserSettings:
  m_ObjectHideFlags: 0
  serializedVersion: 4
  m_ConfigSettings:
    RecentlyUsedScenePath-0:
      value: 22424703114646680e0b0227036c6c111b07142f1f2b233e2867083debf42d
      flags: 0
    RecentlyUsedScenePath-1:
      value: 2242470311464664390609001c364d020f3e0b262d26227f120d1825e7ec3b28efe238fda8050c3f3c0cea2f4b0a042ce6452a03f7190b08050bef4132f7110110c60cc008eb1012df0b13c2c118c3adc0d8ddfec1
      flags: 0
    RecentlyUsedScenePath-2:
      value: 2242470311464664390609001c364d020f3e0b262d26227f120d1825e7ec3b28efe238fda8050c3f3c0cea2f4b0a042ce6452a03f7190b08050bef4132f7110110c60cc008eb1012df0b13c2c118c3dce1d3c7feebe8e2d6db91b5fcfde4f7
      flags: 0
    RecentlyUsedScenePath-3:
      value: 2242470311464664390609001c364d020f3e0b262d26227f120d1825e7ec3b28efe238fda8050c3f3c0cea2f4b012c3efb044626f7020434220df80014b1051d18d101
      flags: 0
    vcSharedLogLevel:
      value: 0d5e400f0650
      flags: 0
  m_VCAutomaticAdd: 1
  m_VCDebugCom: 0
  m_VCDebugCmd: 0
  m_VCDebugOut: 0
  m_SemanticMergeMode: 2
  m_VCShowFailedCheckout: 1
  m_VCOverwriteFailedCheckoutAssets: 1
  m_VCProjectOverlayIcons: 1
  m_VCHierarchyOverlayIcons: 1
  m_VCOtherOverlayIcons: 1
  m_VCAllowAsyncUpdate: 1
