{
    "name": "Blurry.Application.CoreBase",
    "rootNamespace": "Blurry.Application.CoreBase",
    "references": [
        "GUID:604e4e4b8fb9c5f428fe3f86ee3a921d"
    ],
    "includePlatforms": [],
    "excludePlatforms": [],
    "allowUnsafeCode": false,
    "overrideReferences": false,
    "precompiledReferences": [],
    "autoReferenced": false,
    "defineConstraints": [],
    "versionDefines": [],
    "noEngineReferences": false
}