%YAML 1.1
%TAG !u! tag:unity3d.com,2011:
--- !u!1001 &4013502447759236661
PrefabInstance:
  m_ObjectHideFlags: 0
  serializedVersion: 2
  m_Modification:
    m_TransformParent: {fileID: 0}
    m_Modifications:
    - target: {fileID: 898228866922421163, guid: 7a8e3f7248b69e745bbc9b6cfd596d46,
        type: 3}
      propertyPath: m_Name
      value: ClassificationModuleElement_1 Variant
      objectReference: {fileID: 0}
    - target: {fileID: 4187716839480931237, guid: 7a8e3f7248b69e745bbc9b6cfd596d46,
        type: 3}
      propertyPath: m_LocalPosition.x
      value: 0
      objectReference: {fileID: 0}
    - target: {fileID: 4187716839480931237, guid: 7a8e3f7248b69e745bbc9b6cfd596d46,
        type: 3}
      propertyPath: m_LocalPosition.y
      value: 1.31
      objectReference: {fileID: 0}
    - target: {fileID: 4187716839480931237, guid: 7a8e3f7248b69e745bbc9b6cfd596d46,
        type: 3}
      propertyPath: m_LocalPosition.z
      value: 0
      objectReference: {fileID: 0}
    - target: {fileID: 4187716839480931237, guid: 7a8e3f7248b69e745bbc9b6cfd596d46,
        type: 3}
      propertyPath: m_LocalRotation.x
      value: -0
      objectReference: {fileID: 0}
    - target: {fileID: 4187716839480931237, guid: 7a8e3f7248b69e745bbc9b6cfd596d46,
        type: 3}
      propertyPath: m_LocalRotation.y
      value: -0
      objectReference: {fileID: 0}
    - target: {fileID: 4187716839480931237, guid: 7a8e3f7248b69e745bbc9b6cfd596d46,
        type: 3}
      propertyPath: m_LocalRotation.z
      value: -0
      objectReference: {fileID: 0}
    - target: {fileID: 4187716839480931237, guid: 7a8e3f7248b69e745bbc9b6cfd596d46,
        type: 3}
      propertyPath: m_LocalRotation.w
      value: 1
      objectReference: {fileID: 0}
    - target: {fileID: 4187716839480931237, guid: 7a8e3f7248b69e745bbc9b6cfd596d46,
        type: 3}
      propertyPath: m_RootOrder
      value: 0
      objectReference: {fileID: 0}
    - target: {fileID: 4187716839480931237, guid: 7a8e3f7248b69e745bbc9b6cfd596d46,
        type: 3}
      propertyPath: m_LocalEulerAnglesHint.x
      value: 0
      objectReference: {fileID: 0}
    - target: {fileID: 4187716839480931237, guid: 7a8e3f7248b69e745bbc9b6cfd596d46,
        type: 3}
      propertyPath: m_LocalEulerAnglesHint.y
      value: 0
      objectReference: {fileID: 0}
    - target: {fileID: 4187716839480931237, guid: 7a8e3f7248b69e745bbc9b6cfd596d46,
        type: 3}
      propertyPath: m_LocalEulerAnglesHint.z
      value: 0
      objectReference: {fileID: 0}
    - target: {fileID: 3469022691511945037, guid: 7a8e3f7248b69e745bbc9b6cfd596d46,
        type: 3}
      propertyPath: m_Constraints
      value: 2
      objectReference: {fileID: 0}
    - target: {fileID: 3469022691511945037, guid: 7a8e3f7248b69e745bbc9b6cfd596d46,
        type: 3}
      propertyPath: m_Mass
      value: 40
      objectReference: {fileID: 0}
    m_RemovedComponents: []
  m_SourcePrefab: {fileID: 100100000, guid: 7a8e3f7248b69e745bbc9b6cfd596d46, type: 3}
