%YAML 1.1
%TAG !u! tag:unity3d.com,2011:
--- !u!1001 &4013502447759236661
PrefabInstance:
  m_ObjectHideFlags: 0
  serializedVersion: 2
  m_Modification:
    m_TransformParent: {fileID: 0}
    m_Modifications:
    - target: {fileID: 898228866922421163, guid: 7a8e3f7248b69e745bbc9b6cfd596d46,
        type: 3}
      propertyPath: m_Name
      value: ClassificationModuleElement_1 Variant 1
      objectReference: {fileID: 0}
    - target: {fileID: 898228866922421163, guid: 7a8e3f7248b69e745bbc9b6cfd596d46,
        type: 3}
      propertyPath: m_TagString
      value: Untagged
      objectReference: {fileID: 0}
    - target: {fileID: 898228866922421163, guid: 7a8e3f7248b69e745bbc9b6cfd596d46,
        type: 3}
      propertyPath: m_Layer
      value: 0
      objectReference: {fileID: 0}
    - target: {fileID: 3469022691511945037, guid: 7a8e3f7248b69e745bbc9b6cfd596d46,
        type: 3}
      propertyPath: m_Constraints
      value: 0
      objectReference: {fileID: 0}
    - target: {fileID: 3469022691511945037, guid: 7a8e3f7248b69e745bbc9b6cfd596d46,
        type: 3}
      propertyPath: m_Mass
      value: 10
      objectReference: {fileID: 0}
    - target: {fileID: 3469022691511945037, guid: 7a8e3f7248b69e745bbc9b6cfd596d46,
        type: 3}
      propertyPath: m_AngularDrag
      value: 0.1
      objectReference: {fileID: 0}
    - target: {fileID: 4187716839480931237, guid: 7a8e3f7248b69e745bbc9b6cfd596d46,
        type: 3}
      propertyPath: m_LocalPosition.x
      value: 0
      objectReference: {fileID: 0}
    - target: {fileID: 4187716839480931237, guid: 7a8e3f7248b69e745bbc9b6cfd596d46,
        type: 3}
      propertyPath: m_LocalPosition.y
      value: 1.31
      objectReference: {fileID: 0}
    - target: {fileID: 4187716839480931237, guid: 7a8e3f7248b69e745bbc9b6cfd596d46,
        type: 3}
      propertyPath: m_LocalPosition.z
      value: 0
      objectReference: {fileID: 0}
    - target: {fileID: 4187716839480931237, guid: 7a8e3f7248b69e745bbc9b6cfd596d46,
        type: 3}
      propertyPath: m_LocalRotation.x
      value: -0
      objectReference: {fileID: 0}
    - target: {fileID: 4187716839480931237, guid: 7a8e3f7248b69e745bbc9b6cfd596d46,
        type: 3}
      propertyPath: m_LocalRotation.y
      value: -0
      objectReference: {fileID: 0}
    - target: {fileID: 4187716839480931237, guid: 7a8e3f7248b69e745bbc9b6cfd596d46,
        type: 3}
      propertyPath: m_LocalRotation.z
      value: -0
      objectReference: {fileID: 0}
    - target: {fileID: 4187716839480931237, guid: 7a8e3f7248b69e745bbc9b6cfd596d46,
        type: 3}
      propertyPath: m_LocalRotation.w
      value: 1
      objectReference: {fileID: 0}
    - target: {fileID: 4187716839480931237, guid: 7a8e3f7248b69e745bbc9b6cfd596d46,
        type: 3}
      propertyPath: m_RootOrder
      value: 0
      objectReference: {fileID: 0}
    - target: {fileID: 4187716839480931237, guid: 7a8e3f7248b69e745bbc9b6cfd596d46,
        type: 3}
      propertyPath: m_LocalEulerAnglesHint.x
      value: 0
      objectReference: {fileID: 0}
    - target: {fileID: 4187716839480931237, guid: 7a8e3f7248b69e745bbc9b6cfd596d46,
        type: 3}
      propertyPath: m_LocalEulerAnglesHint.y
      value: 0
      objectReference: {fileID: 0}
    - target: {fileID: 4187716839480931237, guid: 7a8e3f7248b69e745bbc9b6cfd596d46,
        type: 3}
      propertyPath: m_LocalEulerAnglesHint.z
      value: 0
      objectReference: {fileID: 0}
    - target: {fileID: 4187716839480931237, guid: 7a8e3f7248b69e745bbc9b6cfd596d46,
        type: 3}
      propertyPath: m_LocalScale.y
      value: 0.8
      objectReference: {fileID: 0}
    - target: {fileID: 4187716839480931237, guid: 7a8e3f7248b69e745bbc9b6cfd596d46,
        type: 3}
      propertyPath: m_LocalScale.x
      value: 0.8
      objectReference: {fileID: 0}
    - target: {fileID: 4187716839480931237, guid: 7a8e3f7248b69e745bbc9b6cfd596d46,
        type: 3}
      propertyPath: m_LocalScale.z
      value: 0.8
      objectReference: {fileID: 0}
    - target: {fileID: 357978695310561124, guid: 7a8e3f7248b69e745bbc9b6cfd596d46,
        type: 3}
      propertyPath: m_Enabled
      value: 1
      objectReference: {fileID: 0}
    - target: {fileID: 4480850419792556595, guid: 7a8e3f7248b69e745bbc9b6cfd596d46,
        type: 3}
      propertyPath: m_Materials.Array.data[0]
      value: 
      objectReference: {fileID: 2100000, guid: d4adec841ecc81e408e5e0386bc4d213, type: 2}
    m_RemovedComponents: []
  m_SourcePrefab: {fileID: 100100000, guid: 7a8e3f7248b69e745bbc9b6cfd596d46, type: 3}
