{
    "name": "Blurry.Main.Base.ServiceManagement",
    "rootNamespace": "Blurry.Main.Base.ServiceManagement",
    "references": [
        "GUID:604e4e4b8fb9c5f428fe3f86ee3a921d",
        "GUID:abd37dd4e030a0c40bdf8fa09effd998"
    ],
    "includePlatforms": [],
    "excludePlatforms": [],
    "allowUnsafeCode": false,
    "overrideReferences": false,
    "precompiledReferences": [],
    "autoReferenced": false,
    "defineConstraints": [],
    "versionDefines": [],
    "noEngineReferences": false
}