%YAML 1.1
%TAG !u! tag:unity3d.com,2011:
--- !u!143 &4596263421671011651
CharacterController:
  m_ObjectHideFlags: 0
  m_CorrespondingSourceObject: {fileID: 0}
  m_PrefabInstance: {fileID: 0}
  m_PrefabAsset: {fileID: 0}
  m_GameObject: {fileID: 6226668538492519874}
  m_Material: {fileID: 0}
  m_IsTrigger: 0
  m_Enabled: 1
  serializedVersion: 2
  m_Height: 1.5
  m_Radius: 0.3
  m_SlopeLimit: 45
  m_StepOffset: 0.3
  m_SkinWidth: 0.001
  m_MinMoveDistance: 0.01
  m_Center: {x: 0, y: 0.75, z: 0}
--- !u!1001 &6532748174413510803
PrefabInstance:
  m_ObjectHideFlags: 0
  serializedVersion: 2
  m_Modification:
    m_TransformParent: {fileID: 0}
    m_Modifications:
    - target: {fileID: -8679921383154817045, guid: cd0cdc64047420b42938d1791273a4cb, type: 3}
      propertyPath: m_RootOrder
      value: 0
      objectReference: {fileID: 0}
    - target: {fileID: -8679921383154817045, guid: cd0cdc64047420b42938d1791273a4cb, type: 3}
      propertyPath: m_LocalPosition.x
      value: 0
      objectReference: {fileID: 0}
    - target: {fileID: -8679921383154817045, guid: cd0cdc64047420b42938d1791273a4cb, type: 3}
      propertyPath: m_LocalPosition.y
      value: 1
      objectReference: {fileID: 0}
    - target: {fileID: -8679921383154817045, guid: cd0cdc64047420b42938d1791273a4cb, type: 3}
      propertyPath: m_LocalPosition.z
      value: 0
      objectReference: {fileID: 0}
    - target: {fileID: -8679921383154817045, guid: cd0cdc64047420b42938d1791273a4cb, type: 3}
      propertyPath: m_LocalRotation.w
      value: 1
      objectReference: {fileID: 0}
    - target: {fileID: -8679921383154817045, guid: cd0cdc64047420b42938d1791273a4cb, type: 3}
      propertyPath: m_LocalRotation.x
      value: -0
      objectReference: {fileID: 0}
    - target: {fileID: -8679921383154817045, guid: cd0cdc64047420b42938d1791273a4cb, type: 3}
      propertyPath: m_LocalRotation.y
      value: -0
      objectReference: {fileID: 0}
    - target: {fileID: -8679921383154817045, guid: cd0cdc64047420b42938d1791273a4cb, type: 3}
      propertyPath: m_LocalRotation.z
      value: -0
      objectReference: {fileID: 0}
    - target: {fileID: -8679921383154817045, guid: cd0cdc64047420b42938d1791273a4cb, type: 3}
      propertyPath: m_LocalEulerAnglesHint.x
      value: 0
      objectReference: {fileID: 0}
    - target: {fileID: -8679921383154817045, guid: cd0cdc64047420b42938d1791273a4cb, type: 3}
      propertyPath: m_LocalEulerAnglesHint.y
      value: 0
      objectReference: {fileID: 0}
    - target: {fileID: -8679921383154817045, guid: cd0cdc64047420b42938d1791273a4cb, type: 3}
      propertyPath: m_LocalEulerAnglesHint.z
      value: 0
      objectReference: {fileID: 0}
    - target: {fileID: 919132149155446097, guid: cd0cdc64047420b42938d1791273a4cb, type: 3}
      propertyPath: m_Name
      value: Mike_Character
      objectReference: {fileID: 0}
    - target: {fileID: 4950443092344124587, guid: cd0cdc64047420b42938d1791273a4cb, type: 3}
      propertyPath: m_LocalPosition.y
      value: -0.16
      objectReference: {fileID: 0}
    - target: {fileID: 5866666021909216657, guid: cd0cdc64047420b42938d1791273a4cb, type: 3}
      propertyPath: m_Controller
      value: 
      objectReference: {fileID: 9100000, guid: a9eaf12e845b5b64bb3a63ddb681f63a, type: 2}
    m_RemovedComponents: []
  m_SourcePrefab: {fileID: 100100000, guid: cd0cdc64047420b42938d1791273a4cb, type: 3}
--- !u!1 &6226668538492519874 stripped
GameObject:
  m_CorrespondingSourceObject: {fileID: 919132149155446097, guid: cd0cdc64047420b42938d1791273a4cb, type: 3}
  m_PrefabInstance: {fileID: 6532748174413510803}
  m_PrefabAsset: {fileID: 0}
