{
    "name": "Blurry.Application.Foundation.Behaviour",
    "rootNamespace": "Blurry.Application.Foundation.Behaviour",
    "references": [
        "GUID:604e4e4b8fb9c5f428fe3f86ee3a921d",
        "GUID:52cc784988ee8c44aa38c8f28104c9ed",
        "GUID:1b6ac69ad16c8d842abff77bf0334100",
        "GUID:1382fb15327b92a4bb71e27706d2421b"
    ],
    "includePlatforms": [],
    "excludePlatforms": [],
    "allowUnsafeCode": false,
    "overrideReferences": false,
    "precompiledReferences": [],
    "autoReferenced": false,
    "defineConstraints": [],
    "versionDefines": [],
    "noEngineReferences": false
}