{
    "name": "Blurry.Application.ServiceMiddle.InputManagement",
    "rootNamespace": "Blurry.Application.ServiceMiddle.InputManagement",
    "references": [
        "GUID:75469ad4d38634e559750d17036d5f7c",
        "GUID:604e4e4b8fb9c5f428fe3f86ee3a921d",
        "GUID:abd37dd4e030a0c40bdf8fa09effd998",
        "GUID:0955dcd61311c38449282d7b29d14b3b"
    ],
    "includePlatforms": [],
    "excludePlatforms": [],
    "allowUnsafeCode": false,
    "overrideReferences": false,
    "precompiledReferences": [],
    "autoReferenced": false,
    "defineConstraints": [],
    "versionDefines": [],
    "noEngineReferences": false
}