{
    "name": "Blurry.Application.Utility",
    "rootNamespace": "Blurry.Application.Utility",
    "references": [],
    "includePlatforms": [],
    "excludePlatforms": [],
    "allowUnsafeCode": false,
    "overrideReferences": false,
    "precompiledReferences": [
        ""
    ],
    "autoReferenced": false,
    "defineConstraints": [],
    "versionDefines": [],
    "noEngineReferences": false
}