{
    "name": "Blurry.Application.Layer_2_Foundation",
    "rootNamespace": "Blurry.Application.Layer_2_Foundation",
    "references": [
        "GUID:699ef89c833cc834392e80df48497db3",
        "GUID:527c98a7e5b34c74e9094a673741f057"
    ],
    "includePlatforms": [],
    "excludePlatforms": [],
    "allowUnsafeCode": false,
    "overrideReferences": false,
    "precompiledReferences": [],
    "autoReferenced": true,
    "defineConstraints": [],
    "versionDefines": [],
    "noEngineReferences": false
}