{
    "name": "Blurry.Application.CoreMechanics",
    "rootNamespace": "Blurry.Application.CoreMechanics",
    "references": [
        "GUID:604e4e4b8fb9c5f428fe3f86ee3a921d",
        "GUID:9eafca97687752d4c8b82d2d553ef748",
        "GUID:8aef4aa8b26f9d248a7922093b8c8b2e",
        "GUID:9915a96d0701f0547a8a0c61f6cd3acb"
    ],
    "includePlatforms": [],
    "excludePlatforms": [],
    "allowUnsafeCode": false,
    "overrideReferences": false,
    "precompiledReferences": [],
    "autoReferenced": false,
    "defineConstraints": [],
    "versionDefines": [],
    "noEngineReferences": false
}