%YAML 1.1
%TAG !u! tag:unity3d.com,2011:
--- !u!114 &11400000
MonoBehaviour:
  m_ObjectHideFlags: 0
  m_CorrespondingSourceObject: {fileID: 0}
  m_PrefabInstance: {fileID: 0}
  m_PrefabAsset: {fileID: 0}
  m_GameObject: {fileID: 0}
  m_Enabled: 1
  m_EditorHideFlags: 0
  m_Script: {fileID: 11500000, guid: fcf7219bab7fe46a1ad266029b2fee19, type: 3}
  m_Name: Readme
  m_EditorClassIdentifier: 
  icon: {fileID: 2800000, guid: 0837c718cc4c0a34d8400e5cfc4db78b, type: 3}
  title: BlurryIsland;
  sections:
  - heading: Welcome To Blurry Island
    text: 'BlurryIsland is a puzzle-platformer adventure game, its story is about AI ethics,
	  specifically the concerns of unemployment caused by AI. We want to emphasize
	  on the importance of being  creative and aware about this technology to be
	  able to conquer the fear of unemployment. The storytelling is cached in gameplay
	  elements like puzzles.'
    linkText: 
    url: 
  - heading: Target Platforms
    text: 'PC, Consoles'
    linkText: 
    url: 
  - heading: 
    text: 'This Project is under development by
	Mahsa Geshvadi and Jamasb Samia'
    linkText: 
    url: 
  - heading: 
    text: '@All rights are reserved, Winter 2019, Sprint 2020'
    linkText: 
    url: 
  - heading: 
    text: 'To Read More about US:'
    linkText: BlurryIsland.com
    url: https://B;urryIsland.com
  loadedLayout: 1
