{
    "name": "Blurry.Main.CharacterBehaviours",
    "rootNamespace": "Blurry.Main.CharacterBehaviours",
    "references": [
        "GUID:604e4e4b8fb9c5f428fe3f86ee3a921d",
        "GUID:52cc784988ee8c44aa38c8f28104c9ed",
        "GUID:601f9b2074a98b547a278bb7f6e35d3c",
        "GUID:d09fd695a049c554190bdf9cdd128ccc",
        "GUID:5801cadb0730f904d85a41275dd2770c",
        "GUID:e4bd9c45d4b57334fa9b3c3cb1a76c0d",
        "GUID:1382fb15327b92a4bb71e27706d2421b",
        "GUID:1b6ac69ad16c8d842abff77bf0334100",
        "GUID:3dd0b43ed8aaad04db57847773711d2d",
        "GUID:89fb3871e7201614aafe947bf2aa9fc9",
        "GUID:e94b15f76629a6040af4e5b6d81ab0f3",
        "GUID:2a29fdce79ad0a441860219fda77ffb9",
        "GUID:755c5b397f89be64eb5245dda0b035b1",
        "GUID:ec419e8a4fcb4e248a1a9345080d7df9",
        "GUID:06b00ca415773c64fac1b03f4c78541c",
        "GUID:8a09d572159a3c54bb541e8896e0d98d"
    ],
    "includePlatforms": [],
    "excludePlatforms": [],
    "allowUnsafeCode": false,
    "overrideReferences": false,
    "precompiledReferences": [],
    "autoReferenced": false,
    "defineConstraints": [],
    "versionDefines": [],
    "noEngineReferences": false
}